Name,E_Id,Salary,D_Id
Ismaeel,E101,23000.00,D101
Shakeel,E102,36000.00,D103
Khaleel,E103,67000.00,D103
Kaleem,E104,56000.00,D102
Moeen,E105,48000.00,D101
Asif,E106,59000.00,D103
Amir,E107,76000.00,D105
Sarim,E108,88888.00,D104
Anwar,E109,89898.00,D104
Azam,E110,91234.00,D105
